{
  "formatVersion": 1,
  "database": {
    "version": 5,
    "identityHash": "bbe4c76442cc8f13f5542c3b57e544b5",
    "entities": [
      {
        "tableName": "configuration",
        "createSql": "CREATE TABLE IF NOT EXISTS `${TABLE_NAME}` (`key` TEXT NOT NULL, `value` TEXT NOT NULL, PRIMARY KEY(`key`))",
        "fields": [
          {
            "fieldPath": "key",
            "columnName": "key",
            "affinity": "TEXT",
            "notNull": true
          },
          {
            "fieldPath": "value",
            "columnName": "value",
            "affinity": "TEXT",
            "notNull": true
          }
        ],
        "primaryKey": {
          "autoGenerate": false,
          "columnNames": [
            "key"
          ]
        },
        "indices": [],
        "foreignKeys": []
      },
      {
        "tableName": "customer",
        "createSql": "CREATE TABLE IF NOT EXISTS `${TABLE_NAME}` (`id` INTEGER NOT NULL, `name` TEXT NOT NULL, PRIMARY KEY(`id`))",
        "fields": [
          {
            "fieldPath": "id",
            "columnName": "id",
            "affinity": "INTEGER",
            "notNull": true
          },
          {
            "fieldPath": "name",
            "columnName": "name",
            "affinity": "TEXT",
            "notNull": true
          }
        ],
        "primaryKey": {
          "autoGenerate": false,
          "columnNames": [
            "id"
          ]
        },
        "indices": [],
        "foreignKeys": []
      },
      {
        "tableName": "customer_role",
        "createSql": "CREATE TABLE IF NOT EXISTS `${TABLE_NAME}` (`customer_id` INTEGER NOT NULL, `role` TEXT NOT NULL, PRIMARY KEY(`customer_id`, `role`), FOREIGN KEY(`customer_id`) REFERENCES `customer`(`id`) ON UPDATE CASCADE ON DELETE CASCADE )",
        "fields": [
          {
            "fieldPath": "customerId",
            "columnName": "customer_id",
            "affinity": "INTEGER",
            "notNull": true
          },
          {
            "fieldPath": "role",
            "columnName": "role",
            "affinity": "TEXT",
            "notNull": true
          }
        ],
        "primaryKey": {
          "autoGenerate": false,
          "columnNames": [
            "customer_id",
            "role"
          ]
        },
        "indices": [],
        "foreignKeys": [
          {
            "table": "customer",
            "onDelete": "CASCADE",
            "onUpdate": "CASCADE",
            "columns": [
              "customer_id"
            ],
            "referencedColumns": [
              "id"
            ]
          }
        ]
      },
      {
        "tableName": "logged_phone_call",
        "createSql": "CREATE TABLE IF NOT EXISTS `${TABLE_NAME}` (`id` TEXT NOT NULL, `kind` TEXT NOT NULL, `from` TEXT NOT NULL, `to` TEXT NOT NULL, `start` INTEGER NOT NULL, `wait` INTEGER NOT NULL, `length` INTEGER NOT NULL, `status` TEXT NOT NULL, `synced` INTEGER NOT NULL, `entity_id` INTEGER NOT NULL, PRIMARY KEY(`id`), FOREIGN KEY(`entity_id`) REFERENCES `customer`(`id`) ON UPDATE CASCADE ON DELETE CASCADE )",
        "fields": [
          {
            "fieldPath": "id",
            "columnName": "id",
            "affinity": "TEXT",
            "notNull": true
          },
          {
            "fieldPath": "kind",
            "columnName": "kind",
            "affinity": "TEXT",
            "notNull": true
          },
          {
            "fieldPath": "from",
            "columnName": "from",
            "affinity": "TEXT",
            "notNull": true
          },
          {
            "fieldPath": "to",
            "columnName": "to",
            "affinity": "TEXT",
            "notNull": true
          },
          {
            "fieldPath": "start",
            "columnName": "start",
            "affinity": "INTEGER",
            "notNull": true
          },
          {
            "fieldPath": "wait",
            "columnName": "wait",
            "affinity": "INTEGER",
            "notNull": true
          },
          {
            "fieldPath": "length",
            "columnName": "length",
            "affinity": "INTEGER",
            "notNull": true
          },
          {
            "fieldPath": "status",
            "columnName": "status",
            "affinity": "TEXT",
            "notNull": true
          },
          {
            "fieldPath": "synced",
            "columnName": "synced",
            "affinity": "INTEGER",
            "notNull": true
          },
          {
            "fieldPath": "entityId",
            "columnName": "entity_id",
            "affinity": "INTEGER",
            "notNull": true
          }
        ],
        "primaryKey": {
          "autoGenerate": false,
          "columnNames": [
            "id"
          ]
        },
        "indices": [
          {
            "name": "phone_call_sync_index",
            "unique": false,
            "columnNames": [
              "synced"
            ],
            "orders": [],
            "createSql": "CREATE INDEX IF NOT EXISTS `phone_call_sync_index` ON `${TABLE_NAME}` (`synced`)"
          },
          {
            "name": "phone_call_status_index",
            "unique": false,
            "columnNames": [
              "status"
            ],
            "orders": [],
            "createSql": "CREATE INDEX IF NOT EXISTS `phone_call_status_index` ON `${TABLE_NAME}` (`status`)"
          },
          {
            "name": "index_logged_phone_call_entity_id",
            "unique": false,
            "columnNames": [
              "entity_id"
            ],
            "orders": [],
            "createSql": "CREATE INDEX IF NOT EXISTS `index_logged_phone_call_entity_id` ON `${TABLE_NAME}` (`entity_id`)"
          }
        ],
        "foreignKeys": [
          {
            "table": "customer",
            "onDelete": "CASCADE",
            "onUpdate": "CASCADE",
            "columns": [
              "entity_id"
            ],
            "referencedColumns": [
              "id"
            ]
          }
        ]
      },
      {
        "tableName": "contact_type",
        "createSql": "CREATE TABLE IF NOT EXISTS `${TABLE_NAME}` (`id` INTEGER NOT NULL, `name` TEXT NOT NULL, `uri_schema` TEXT, PRIMARY KEY(`id`))",
        "fields": [
          {
            "fieldPath": "id",
            "columnName": "id",
            "affinity": "INTEGER",
            "notNull": true
          },
          {
            "fieldPath": "name",
            "columnName": "name",
            "affinity": "TEXT",
            "notNull": true
          },
          {
            "fieldPath": "uriSchema",
            "columnName": "uri_schema",
            "affinity": "TEXT",
            "notNull": false
          }
        ],
        "primaryKey": {
          "autoGenerate": false,
          "columnNames": [
            "id"
          ]
        },
        "indices": [],
        "foreignKeys": []
      },
      {
        "tableName": "salutation",
        "createSql": "CREATE TABLE IF NOT EXISTS `${TABLE_NAME}` (`id` INTEGER NOT NULL, `name` TEXT NOT NULL, `weight` INTEGER NOT NULL, `owner_id` INTEGER NOT NULL, PRIMARY KEY(`id`), FOREIGN KEY(`owner_id`) REFERENCES `customer`(`id`) ON UPDATE CASCADE ON DELETE CASCADE )",
        "fields": [
          {
            "fieldPath": "id",
            "columnName": "id",
            "affinity": "INTEGER",
            "notNull": true
          },
          {
            "fieldPath": "name",
            "columnName": "name",
            "affinity": "TEXT",
            "notNull": true
          },
          {
            "fieldPath": "weight",
            "columnName": "weight",
            "affinity": "INTEGER",
            "notNull": true
          },
          {
            "fieldPath": "ownerId",
            "columnName": "owner_id",
            "affinity": "INTEGER",
            "notNull": true
          }
        ],
        "primaryKey": {
          "autoGenerate": false,
          "columnNames": [
            "id"
          ]
        },
        "indices": [
          {
            "name": "index_salutation_owner_id",
            "unique": false,
            "columnNames": [
              "owner_id"
            ],
            "orders": [],
            "createSql": "CREATE INDEX IF NOT EXISTS `index_salutation_owner_id` ON `${TABLE_NAME}` (`owner_id`)"
          }
        ],
        "foreignKeys": [
          {
            "table": "customer",
            "onDelete": "CASCADE",
            "onUpdate": "CASCADE",
            "columns": [
              "owner_id"
            ],
            "referencedColumns": [
              "id"
            ]
          }
        ]
      },
      {
        "tableName": "entity_group",
        "createSql": "CREATE TABLE IF NOT EXISTS `${TABLE_NAME}` (`id` INTEGER NOT NULL, `name` TEXT NOT NULL, `weight` INTEGER NOT NULL, `owner_id` INTEGER NOT NULL, PRIMARY KEY(`id`), FOREIGN KEY(`owner_id`) REFERENCES `customer`(`id`) ON UPDATE CASCADE ON DELETE CASCADE )",
        "fields": [
          {
            "fieldPath": "id",
            "columnName": "id",
            "affinity": "INTEGER",
            "notNull": true
          },
          {
            "fieldPath": "name",
            "columnName": "name",
            "affinity": "TEXT",
            "notNull": true
          },
          {
            "fieldPath": "weight",
            "columnName": "weight",
            "affinity": "INTEGER",
            "notNull": true
          },
          {
            "fieldPath": "ownerId",
            "columnName": "owner_id",
            "affinity": "INTEGER",
            "notNull": true
          }
        ],
        "primaryKey": {
          "autoGenerate": false,
          "columnNames": [
            "id"
          ]
        },
        "indices": [
          {
            "name": "index_entity_group_owner_id",
            "unique": false,
            "columnNames": [
              "owner_id"
            ],
            "orders": [],
            "createSql": "CREATE INDEX IF NOT EXISTS `index_entity_group_owner_id` ON `${TABLE_NAME}` (`owner_id`)"
          }
        ],
        "foreignKeys": [
          {
            "table": "customer",
            "onDelete": "CASCADE",
            "onUpdate": "CASCADE",
            "columns": [
              "owner_id"
            ],
            "referencedColumns": [
              "id"
            ]
          }
        ]
      },
      {
        "tableName": "entity",
        "createSql": "CREATE TABLE IF NOT EXISTS `${TABLE_NAME}` (`id` INTEGER NOT NULL, `owner_id` INTEGER, `group_id` INTEGER, `type` TEXT NOT NULL, `computed_display_name` TEXT NOT NULL, `person_firstname` TEXT, `person_lastname` TEXT, `person_birthdate` TEXT, `person_salutation_id` INTEGER, `person_title` TEXT, `organization_name` TEXT, PRIMARY KEY(`id`), FOREIGN KEY(`owner_id`) REFERENCES `customer`(`id`) ON UPDATE CASCADE ON DELETE CASCADE , FOREIGN KEY(`group_id`) REFERENCES `entity_group`(`id`) ON UPDATE CASCADE ON DELETE CASCADE , FOREIGN KEY(`person_salutation_id`) REFERENCES `salutation`(`id`) ON UPDATE CASCADE ON DELETE CASCADE )",
        "fields": [
          {
            "fieldPath": "id",
            "columnName": "id",
            "affinity": "INTEGER",
            "notNull": true
          },
          {
            "fieldPath": "ownerId",
            "columnName": "owner_id",
            "affinity": "INTEGER",
            "notNull": false
          },
          {
            "fieldPath": "groupId",
            "columnName": "group_id",
            "affinity": "INTEGER",
            "notNull": false
          },
          {
            "fieldPath": "type",
            "columnName": "type",
            "affinity": "TEXT",
            "notNull": true
          },
          {
            "fieldPath": "computedDisplayName",
            "columnName": "computed_display_name",
            "affinity": "TEXT",
            "notNull": true
          },
          {
            "fieldPath": "personFirstname",
            "columnName": "person_firstname",
            "affinity": "TEXT",
            "notNull": false
          },
          {
            "fieldPath": "personLastname",
            "columnName": "person_lastname",
            "affinity": "TEXT",
            "notNull": false
          },
          {
            "fieldPath": "personBirthdate",
            "columnName": "person_birthdate",
            "affinity": "TEXT",
            "notNull": false
          },
          {
            "fieldPath": "personSalutationId",
            "columnName": "person_salutation_id",
            "affinity": "INTEGER",
            "notNull": false
          },
          {
            "fieldPath": "personTitle",
            "columnName": "person_title",
            "affinity": "TEXT",
            "notNull": false
          },
          {
            "fieldPath": "organizationName",
            "columnName": "organization_name",
            "affinity": "TEXT",
            "notNull": false
          }
        ],
        "primaryKey": {
          "autoGenerate": false,
          "columnNames": [
            "id"
          ]
        },
        "indices": [
          {
            "name": "index_entity_owner_id",
            "unique": false,
            "columnNames": [
              "owner_id"
            ],
            "orders": [],
            "createSql": "CREATE INDEX IF NOT EXISTS `index_entity_owner_id` ON `${TABLE_NAME}` (`owner_id`)"
          },
          {
            "name": "index_entity_group_id",
            "unique": false,
            "columnNames": [
              "group_id"
            ],
            "orders": [],
            "createSql": "CREATE INDEX IF NOT EXISTS `index_entity_group_id` ON `${TABLE_NAME}` (`group_id`)"
          },
          {
            "name": "index_entity_computed_display_name",
            "unique": false,
            "columnNames": [
              "computed_display_name"
            ],
            "orders": [],
            "createSql": "CREATE INDEX IF NOT EXISTS `index_entity_computed_display_name` ON `${TABLE_NAME}` (`computed_display_name`)"
          },
          {
            "name": "index_entity_person_salutation_id",
            "unique": false,
            "columnNames": [
              "person_salutation_id"
            ],
            "orders": [],
            "createSql": "CREATE INDEX IF NOT EXISTS `index_entity_person_salutation_id` ON `${TABLE_NAME}` (`person_salutation_id`)"
          }
        ],
        "foreignKeys": [
          {
            "table": "customer",
            "onDelete": "CASCADE",
            "onUpdate": "CASCADE",
            "columns": [
              "owner_id"
            ],
            "referencedColumns": [
              "id"
            ]
          },
          {
            "table": "entity_group",
            "onDelete": "CASCADE",
            "onUpdate": "CASCADE",
            "columns": [
              "group_id"
            ],
            "referencedColumns": [
              "id"
            ]
          },
          {
            "table": "salutation",
            "onDelete": "CASCADE",
            "onUpdate": "CASCADE",
            "columns": [
              "person_salutation_id"
            ],
            "referencedColumns": [
              "id"
            ]
          }
        ]
      },
      {
        "tableName": "address",
        "createSql": "CREATE TABLE IF NOT EXISTS `${TABLE_NAME}` (`id` INTEGER NOT NULL, `entity1_id` INTEGER NOT NULL, `entity2_id` INTEGER, `contact_type_id` INTEGER NOT NULL, `additional` TEXT NOT NULL, `street` TEXT NOT NULL, `city` TEXT NOT NULL, `country` TEXT NOT NULL, `zip_code` TEXT NOT NULL, PRIMARY KEY(`id`), FOREIGN KEY(`entity1_id`) REFERENCES `entity`(`id`) ON UPDATE CASCADE ON DELETE CASCADE , FOREIGN KEY(`entity2_id`) REFERENCES `entity`(`id`) ON UPDATE CASCADE ON DELETE CASCADE , FOREIGN KEY(`contact_type_id`) REFERENCES `contact_type`(`id`) ON UPDATE CASCADE ON DELETE CASCADE )",
        "fields": [
          {
            "fieldPath": "id",
            "columnName": "id",
            "affinity": "INTEGER",
            "notNull": true
          },
          {
            "fieldPath": "entityId1",
            "columnName": "entity1_id",
            "affinity": "INTEGER",
            "notNull": true
          },
          {
            "fieldPath": "entityId2",
            "columnName": "entity2_id",
            "affinity": "INTEGER",
            "notNull": false
          },
          {
            "fieldPath": "contactTypeId",
            "columnName": "contact_type_id",
            "affinity": "INTEGER",
            "notNull": true
          },
          {
            "fieldPath": "additional",
            "columnName": "additional",
            "affinity": "TEXT",
            "notNull": true
          },
          {
            "fieldPath": "street",
            "columnName": "street",
            "affinity": "TEXT",
            "notNull": true
          },
          {
            "fieldPath": "city",
            "columnName": "city",
            "affinity": "TEXT",
            "notNull": true
          },
          {
            "fieldPath": "country",
            "columnName": "country",
            "affinity": "TEXT",
            "notNull": true
          },
          {
            "fieldPath": "zipCode",
            "columnName": "zip_code",
            "affinity": "TEXT",
            "notNull": true
          }
        ],
        "primaryKey": {
          "autoGenerate": false,
          "columnNames": [
            "id"
          ]
        },
        "indices": [
          {
            "name": "index_address_entity1_id",
            "unique": false,
            "columnNames": [
              "entity1_id"
            ],
            "orders": [],
            "createSql": "CREATE INDEX IF NOT EXISTS `index_address_entity1_id` ON `${TABLE_NAME}` (`entity1_id`)"
          },
          {
            "name": "index_address_entity2_id",
            "unique": false,
            "columnNames": [
              "entity2_id"
            ],
            "orders": [],
            "createSql": "CREATE INDEX IF NOT EXISTS `index_address_entity2_id` ON `${TABLE_NAME}` (`entity2_id`)"
          },
          {
            "name": "index_address_contact_type_id",
            "unique": false,
            "columnNames": [
              "contact_type_id"
            ],
            "orders": [],
            "createSql": "CREATE INDEX IF NOT EXISTS `index_address_contact_type_id` ON `${TABLE_NAME}` (`contact_type_id`)"
          }
        ],
        "foreignKeys": [
          {
            "table": "entity",
            "onDelete": "CASCADE",
            "onUpdate": "CASCADE",
            "columns": [
              "entity1_id"
            ],
            "referencedColumns": [
              "id"
            ]
          },
          {
            "table": "entity",
            "onDelete": "CASCADE",
            "onUpdate": "CASCADE",
            "columns": [
              "entity2_id"
            ],
            "referencedColumns": [
              "id"
            ]
          },
          {
            "table": "contact_type",
            "onDelete": "CASCADE",
            "onUpdate": "CASCADE",
            "columns": [
              "contact_type_id"
            ],
            "referencedColumns": [
              "id"
            ]
          }
        ]
      },
      {
        "tableName": "contact_info",
        "createSql": "CREATE TABLE IF NOT EXISTS `${TABLE_NAME}` (`id` INTEGER NOT NULL, `entity1_id` INTEGER NOT NULL, `entity2_id` INTEGER, `contact_type_id` INTEGER NOT NULL, `type` TEXT NOT NULL, `info` TEXT NOT NULL, PRIMARY KEY(`id`), FOREIGN KEY(`entity1_id`) REFERENCES `entity`(`id`) ON UPDATE CASCADE ON DELETE CASCADE , FOREIGN KEY(`entity2_id`) REFERENCES `entity`(`id`) ON UPDATE CASCADE ON DELETE CASCADE , FOREIGN KEY(`contact_type_id`) REFERENCES `contact_type`(`id`) ON UPDATE CASCADE ON DELETE CASCADE )",
        "fields": [
          {
            "fieldPath": "id",
            "columnName": "id",
            "affinity": "INTEGER",
            "notNull": true
          },
          {
            "fieldPath": "entityId1",
            "columnName": "entity1_id",
            "affinity": "INTEGER",
            "notNull": true
          },
          {
            "fieldPath": "entityId2",
            "columnName": "entity2_id",
            "affinity": "INTEGER",
            "notNull": false
          },
          {
            "fieldPath": "contactTypeId",
            "columnName": "contact_type_id",
            "affinity": "INTEGER",
            "notNull": true
          },
          {
            "fieldPath": "type",
            "columnName": "type",
            "affinity": "TEXT",
            "notNull": true
          },
          {
            "fieldPath": "info",
            "columnName": "info",
            "affinity": "TEXT",
            "notNull": true
          }
        ],
        "primaryKey": {
          "autoGenerate": false,
          "columnNames": [
            "id"
          ]
        },
        "indices": [
          {
            "name": "index_contact_info_entity1_id",
            "unique": false,
            "columnNames": [
              "entity1_id"
            ],
            "orders": [],
            "createSql": "CREATE INDEX IF NOT EXISTS `index_contact_info_entity1_id` ON `${TABLE_NAME}` (`entity1_id`)"
          },
          {
            "name": "index_contact_info_entity2_id",
            "unique": false,
            "columnNames": [
              "entity2_id"
            ],
            "orders": [],
            "createSql": "CREATE INDEX IF NOT EXISTS `index_contact_info_entity2_id` ON `${TABLE_NAME}` (`entity2_id`)"
          },
          {
            "name": "index_contact_info_contact_type_id",
            "unique": false,
            "columnNames": [
              "contact_type_id"
            ],
            "orders": [],
            "createSql": "CREATE INDEX IF NOT EXISTS `index_contact_info_contact_type_id` ON `${TABLE_NAME}` (`contact_type_id`)"
          }
        ],
        "foreignKeys": [
          {
            "table": "entity",
            "onDelete": "CASCADE",
            "onUpdate": "CASCADE",
            "columns": [
              "entity1_id"
            ],
            "referencedColumns": [
              "id"
            ]
          },
          {
            "table": "entity",
            "onDelete": "CASCADE",
            "onUpdate": "CASCADE",
            "columns": [
              "entity2_id"
            ],
            "referencedColumns": [
              "id"
            ]
          },
          {
            "table": "contact_type",
            "onDelete": "CASCADE",
            "onUpdate": "CASCADE",
            "columns": [
              "contact_type_id"
            ],
            "referencedColumns": [
              "id"
            ]
          }
        ]
      },
      {
        "tableName": "related_entity",
        "createSql": "CREATE TABLE IF NOT EXISTS `${TABLE_NAME}` (`id` INTEGER NOT NULL, `entity1_id` INTEGER NOT NULL, `entity2_id` INTEGER NOT NULL, PRIMARY KEY(`id`), FOREIGN KEY(`entity1_id`) REFERENCES `entity`(`id`) ON UPDATE CASCADE ON DELETE CASCADE , FOREIGN KEY(`entity2_id`) REFERENCES `entity`(`id`) ON UPDATE CASCADE ON DELETE CASCADE )",
        "fields": [
          {
            "fieldPath": "id",
            "columnName": "id",
            "affinity": "INTEGER",
            "notNull": true
          },
          {
            "fieldPath": "entityId1",
            "columnName": "entity1_id",
            "affinity": "INTEGER",
            "notNull": true
          },
          {
            "fieldPath": "entityId2",
            "columnName": "entity2_id",
            "affinity": "INTEGER",
            "notNull": true
          }
        ],
        "primaryKey": {
          "autoGenerate": false,
          "columnNames": [
            "id"
          ]
        },
        "indices": [
          {
            "name": "index_related_entity_entity1_id",
            "unique": false,
            "columnNames": [
              "entity1_id"
            ],
            "orders": [],
            "createSql": "CREATE INDEX IF NOT EXISTS `index_related_entity_entity1_id` ON `${TABLE_NAME}` (`entity1_id`)"
          },
          {
            "name": "index_related_entity_entity2_id",
            "unique": false,
            "columnNames": [
              "entity2_id"
            ],
            "orders": [],
            "createSql": "CREATE INDEX IF NOT EXISTS `index_related_entity_entity2_id` ON `${TABLE_NAME}` (`entity2_id`)"
          }
        ],
        "foreignKeys": [
          {
            "table": "entity",
            "onDelete": "CASCADE",
            "onUpdate": "CASCADE",
            "columns": [
              "entity1_id"
            ],
            "referencedColumns": [
              "id"
            ]
          },
          {
            "table": "entity",
            "onDelete": "CASCADE",
            "onUpdate": "CASCADE",
            "columns": [
              "entity2_id"
            ],
            "referencedColumns": [
              "id"
            ]
          }
        ]
      },
      {
        "tableName": "phone_account_upload_configuration",
        "createSql": "CREATE TABLE IF NOT EXISTS `${TABLE_NAME}` (`id` INTEGER PRIMARY KEY AUTOINCREMENT NOT NULL, `component_name` TEXT NOT NULL, `os_handle_id` TEXT NOT NULL, `label` TEXT NOT NULL DEFAULT '', `upload_entity_id` INTEGER NOT NULL, FOREIGN KEY(`upload_entity_id`) REFERENCES `customer`(`id`) ON UPDATE CASCADE ON DELETE CASCADE )",
        "fields": [
          {
            "fieldPath": "id",
            "columnName": "id",
            "affinity": "INTEGER",
            "notNull": true
          },
          {
            "fieldPath": "componentName",
            "columnName": "component_name",
            "affinity": "TEXT",
            "notNull": true
          },
          {
            "fieldPath": "osHandleId",
            "columnName": "os_handle_id",
            "affinity": "TEXT",
            "notNull": true
          },
          {
            "fieldPath": "label",
            "columnName": "label",
            "affinity": "TEXT",
            "notNull": true,
            "defaultValue": "''"
          },
          {
            "fieldPath": "uploadEntityId",
            "columnName": "upload_entity_id",
            "affinity": "INTEGER",
            "notNull": true
          }
        ],
        "primaryKey": {
          "autoGenerate": true,
          "columnNames": [
            "id"
          ]
        },
        "indices": [
          {
            "name": "phone_account_upload_unique_os_handle",
            "unique": true,
            "columnNames": [
              "component_name",
              "os_handle_id"
            ],
            "orders": [],
            "createSql": "CREATE UNIQUE INDEX IF NOT EXISTS `phone_account_upload_unique_os_handle` ON `${TABLE_NAME}` (`component_name`, `os_handle_id`)"
          },
          {
            "name": "index_phone_account_upload_configuration_upload_entity_id",
            "unique": false,
            "columnNames": [
              "upload_entity_id"
            ],
            "orders": [],
            "createSql": "CREATE INDEX IF NOT EXISTS `index_phone_account_upload_configuration_upload_entity_id` ON `${TABLE_NAME}` (`upload_entity_id`)"
          }
        ],
        "foreignKeys": [
          {
            "table": "customer",
            "onDelete": "CASCADE",
            "onUpdate": "CASCADE",
            "columns": [
              "upload_entity_id"
            ],
            "referencedColumns": [
              "id"
            ]
          }
        ]
      }
    ],
    "views": [],
    "setupQueries": [
      "CREATE TABLE IF NOT EXISTS room_master_table (id INTEGER PRIMARY KEY,identity_hash TEXT)",
      "INSERT OR REPLACE INTO room_master_table (id,identity_hash) VALUES(42, 'bbe4c76442cc8f13f5542c3b57e544b5')"
    ]
  }
}